<!-- This Source Code Form is subject to the terms of the Mozilla Public
   - License, v. 2.0. If a copy of the MPL was not distributed with this
   - file, You can obtain one at http://mozilla.org/MPL/2.0/. -->
<svg xmlns="http://www.w3.org/2000/svg" width="16" height="16" viewBox="0 0 16 16">
  <path transform="scale(0.9) translate(-0.5, -3)" fill="context-fill" d="M13 11a1 1 0 0 1-.707-.293L8 6.414l-4.293 4.293a1 1 0 0 1-1.414-1.414l5-5a1 1 0 0 1 1.414 0l5 5A1 1 0 0 1 13 11z"></path>
  <path transform="scale(0.9) translate(2.5, 5)" fill="context-fill" d="M8 12a1 1 0 0 1-.707-.293l-5-5a1 1 0 0 1 1.414-1.414L8 9.586l4.293-4.293a1 1 0 0 1 1.414 1.414l-5 5A1 1 0 0 1 8 12z"></path>
</svg>
